{
  "variables": {
    "gce_project_id": "{{env `GOOGLE_PROJECT_ID`}}",
    "gce_zone": "{{env `GOOGLE_COMPUTE_ZONE`}}",
    "gce_machine": "{{env `GOOGLE_COMPUTE_MACHINE`}}",
    "source_image": "{{env `GOOGLE_SOURCE_IMAGE`}}",
    "version": "{{env `VERSION`}}",
    "image_name": "runners-windows-{{env `WINDOWS_VERSION`}}-core-containers-{{user `version`}}",
    "chef_version": "17.1.35",
    "chef_solo_identifying_number": "{310CA48C-2194-4526-ADB1-CBEB815325F4}",
    "install_docker_version": "{{env `INSTALL_DOCKER_VERSION`}}"
  },
  "builders": [
    {
      "type": "googlecompute",
      "project_id": "{{user `gce_project_id`}}",
      "image_name": "{{user `image_name`}}",
      "source_image": "{{user `source_image`}}",
      "image_description": "Runner image for autoscaler driver https://gitlab.com/gitlab-org/ci-cd/custom-executors/autoscaler, build on {{timestamp}}",
      "disk_size": "50",
      "machine_type": "{{user `gce_machine`}}",
      "zone": "{{user `gce_zone`}}",
      "tags": "windows",
      "communicator": "winrm",
      "winrm_use_ssl": true,
      "winrm_insecure": true,
      "winrm_timeout": "5m",
      "winrm_username": "packer_user",
      "state_timeout": "15m",
      "metadata": {
        "windows-startup-script-cmd": "winrm quickconfig -quiet & net user /add packer_user & net localgroup administrators packer_user /add & winrm set winrm/config/service/auth @{Basic=\"true\"}"
      }
    }
  ],
  "provisioners": [
    {
      "type": "chef-solo",
      "cookbook_paths": [
        "cookbooks"
      ],
      "run_list": [
        "recipe[gitlab-runner-dependencies::default]",
        "recipe[chocolatey::default]",
        "recipe[preinstalled-software::default]"
      ],
      "guest_os_type": "windows",
      "version": "{{user `chef_version`}}",
      "json": {
        "docker": {
          "docker_version": "{{user `install_docker_version`}}"
        }
      }
    },
    {
      "type": "windows-restart"
    },
    {
      "type": "powershell",
      "inline": [
        "$app = Get-WmiObject -Class Win32_Product  -Filter \"IdentifyingNumber = '{{user `chef_solo_identifying_number`}}'\"; $app.Uninstall()"
      ]
    },
    {
      "type": "windows-update"
    }
  ]
}
